17 Homework: Ant Community Ecology and Invasive Fire Ants | Bio 373L Survival Guide
…
# Calculate the shannon diversity
shannon_diversity(LETTERS[1:5], # Species names, A : E
                 c(100, 5, 30, 22, 140)) # Species counts
## [1] 3.367463

This function should work well with a grouped summarize function:

tidy_ant_data |> 
  group_by(Acre, Disturbance) |> # group by Acre & habitat
  summarize(shannon = shannon_diversity(Species, N)) 
## `summarise()` has grouped output by 'Acre'. You can override using the
## `.groups` argument.
## # A tibble: 24 × 3
## # Groups:   Acre [14]
##    Acre  Disturbance shannon
##    <chr> <chr>         <dbl>
##  1 A1    high           1.63
##  2 A1    low            2.03
##  3 A10   high           0   
##  4 A10   low            1.69
##  5 A11   high           1.21
##  6 A11   low            1.33
##  7 A14   high           2.79
##  8 A14   low            1.93
##  9 A15   high           1.24
## 10 A15   low            1.12
## # … with 14 more rows
## # ℹ Use `print(n = ...)` to see more rows
…
