6 Data manipulation with dplyr | Bio 373L Survival Guide
…
8.708924

57.55205

12.12895

This applies the functions mean and sd to all numeric columns; The results have the names "Mean" and "StDev" that we gave each function applied to the end of the column.

6.7 Group Operations

The real power of the dplyr package comes from being able to apply all of the above functions to grouped subsets of a data frame. To create a grouped table use the group_by function:

lizards |> group_by(Site)

## # A tibble: 657 × 9
## # Groups:   Site [19]
##    Site  Color_morph  Limb  Mass Diameter Height   SVL  Tail Perch_type
##    <chr> <chr>       <dbl> <dbl>    <dbl>  <dbl> <dbl> <dbl> <chr>     
##  1 A     Green        14.3  6.46        8    164  61.8  43.9 Other     
##  2 A     Brown        12.3  5.82       18    151  57.1  42.2 Tree      
##  3 A     Blue         10.5  4.29       36    130  49.1  25   Building  
##  4 A     Brown        10.3  5.29       31    131  51.2  38.2 Tree      
##  5 A     Brown        10.9  5.69       20    138  51.5  46.9 Shrub     
##  6 A     Brown        10.4  5.84       25    137  45.3  59   Shrub     
##  7 A     Green        11.1  5.91        7    138  49.7  47.6 Building  
##  8 A     Brown        10    5.09       20    141  48    34.9 Tree      
##  9 A     Brown        12.3  7.2        19    129  54.9  61   Tree      
## 10 A     Brown        11.2  6.66       15    134  52.7  50.4 Tree      
## # … with 647 more rows
## # ℹ Use `print(n = ...)` to see more rows
…
