A Working with R | Bio 373L Survival Guide
…
A.2.3 Reading & working with data frames

Before we get started with this you'll need to download an example data file. From RStudio, create an example_data directory, then save this file in it (make sure the name is still anoles.csv). Note that you may need to go to go to **File -> Save Page As...* (or some variant) in your web browser to save it.

Now, let's load the data into R. To do that, we need to load the readr package, which is part of the tidyverse. Note: RStudio has some built-in ways to load datasets; I would strongly advise not using them, because it makes it harder to go back & repeat your analysis if something changes.

library(tidyverse) 
lizards <- read_csv("example_data/anoles.csv") # Note that the path is relative to your project directory.

This is a data frame (effectively a spreadsheet). Technically, it's a type of data frame called a tibble, which doesn't really matter for what we're doing right now. Let's take a look at it:

# quick view of data frame; note that there's more columns and rows 
lizards # listed than are displayed

## # A tibble: 657 x 9
##    Site  Color_morph  Limb  Mass Diameter Height   SVL  Tail Perch_type
##    <chr> <chr>       <dbl> <dbl>    <dbl>  <dbl> <dbl> <dbl> <chr>     
##  1 A     Green        14.3  6.46        8    164  61.8  43.9 Other     
##  2 A     Brown        12.3  5.82       18    151  57.1  42.2 Tree      
##  3 A     Blue         10.5  4.29       36    130  49.1  25   Building  
##  4 A     Brown        10.3  5.29       31    131  51.2  38.2 Tree      
##  5 A     Brown        10.9  5.69       20    138  51.5  46.9 Shrub     
##  6 A     Brown        10.4  5.84       25    137  45.3  59   Shrub     
##  7 A     Green        11.1  5.91        7    138  49.7  47.6 Building  
##  8 A     Brown        10    5.09       20    141  48    34.9 Tree      
##  9 A     Brown        12.3  7.2        19    129  54.9  61   Tree      
## 10 A     Brown        11.2  6.66       15    134  52.7  50.4 Tree      
## # … with 647 more rows
…
